<mxfile host="app.diagrams.net" modified="2020-09-08T03:47:50.314Z" agent="5.0 (Windows NT 6.1; WOW64) AppleWebKit/537.36 (KHTML, like Gecko) Chrome/85.0.4183.83 Safari/537.36" etag="r-TNdpEHc7RP_iH_1CTB" version="13.6.6" type="gitlab">
  <diagram id="i8M-3nUdK6jNc8eiWea-" name="Page-1">
    <mxGraphModel dx="527" dy="482" grid="1" gridSize="10" guides="1" tooltips="1" connect="1" arrows="1" fold="1" page="1" pageScale="1" pageWidth="850" pageHeight="1100" math="0" shadow="0">
      <root>
        <mxCell id="0" />
        <mxCell id="1" parent="0" />
      </root>
    </mxGraphModel>
  </diagram>
</mxfile>
